  A,A,A,A,A,A,A,A,A,A,A,A,A,A,A,A,A,A,A,A
  A,A,A,A,A,B,B,B,B,B,B,B,B,A,A,A,A,A,A,A
  A,A,A,A,B,C,C,C,C,C,C,C,C,B,B,B,B,A,A,A
  A,A,A,A,B,C,C,C,C,C,C,C,C,C,C,C,C,B,A,A
  A,A,A,A,B,B,B,B,B,B,B,B,B,B,B,B,B,B,A,A
  A,A,A,A,B,E,E,E,D,D,D,A,B,D,B,A,A,A,A,A
  A,A,A,B,E,D,E,D,D,D,D,A,B,D,D,B,B,B,A,A
  A,A,A,B,E,D,E,D,D,D,D,D,D,D,E,D,D,D,B,A
  A,A,A,B,E,B,E,E,D,D,D,D,D,E,E,D,D,D,B,A
  A,A,A,A,B,B,D,D,D,D,D,D,E,E,E,E,E,B,A,A
  A,A,A,A,A,B,D,D,D,D,D,D,D,D,D,B,B,A,A,A
  A,A,A,A,A,A,B,B,B,B,B,B,B,B,B,A,A,A,A,A
  A,A,A,A,B,B,B,G,B,C,C,C,B,G,B,B,A,A,A,A
  A,A,A,B,C,C,B,G,B,C,C,C,B,G,B,C,B,A,A,A
  A,A,B,C,C,C,B,G,B,C,C,C,B,G,B,C,C,B,A,A
  A,B,C,C,C,C,B,G,G,B,B,B,G,G,B,C,C,C,B,A
  A,B,B,B,C,B,G,F,F,G,G,G,F,F,B,C,B,B,B,A
  A,B,D,D,B,B,G,F,F,G,G,G,F,F,B,B,D,D,B,A
  A,B,D,D,D,B,G,G,G,G,G,G,G,G,B,D,D,D,B,A
  A,B,D,D,B,G,G,G,G,G,G,G,G,G,G,B,D,D,B,A
  A,B,B,B,B,G,G,G,B,B,B,B,G,G,G,B,B,B,B,A
  A,A,A,A,B,G,G,B,A,A,A,B,G,G,G,B,A,A,A,A
  A,A,A,B,B,B,B,B,A,A,A,A,B,B,B,B,B,A,A,A
  A,A,B,E,E,E,E,B,A,A,A,A,B,E,E,E,E,B,A,A
  A,A,B,B,B,B,B,B,A,A,A,A,B,B,B,B,B,B,A,A
  A,A,A,A,A,A,A,A,A,A,A,A,A,A,A,A,A,A,A,A
 
