A,A,A,A,A,A,A,A,A,A,A,A,B,B,B,A,A,A,A,A,A,A,A,A,A,A,A,A,A,B,B,B,B,A,A,A,A,A,A,A
A,A,A,A,A,A,A,A,A,A,A,B,E,E,E,B,B,A,A,A,A,A,A,A,A,A,A,A,B,E,E,E,B,B,A,A,A,A,A,A
A,A,A,A,A,A,A,A,A,A,B,H,B,E,E,E,E,B,A,A,A,A,A,A,A,A,A,B,E,E,E,B,H,H,B,A,A,A,A,A
A,A,A,A,A,A,A,A,A,A,B,H,H,B,E,E,E,B,B,B,B,B,B,B,B,B,B,E,E,E,B,H,H,H,B,A,A,A,A,A
A,A,A,A,A,A,A,A,A,A,B,H,H,B,E,E,B,E,E,E,E,E,E,E,E,E,E,B,B,B,H,H,H,H,B,A,A,A,A,A
A,A,A,A,A,A,A,A,A,A,B,H,H,H,B,B,E,E,E,E,E,E,E,E,E,E,E,E,E,B,H,H,H,H,B,A,A,A,A,A
A,A,A,A,A,A,A,A,A,A,B,H,H,B,E,E,E,E,E,E,E,E,E,E,E,E,E,E,E,E,B,H,H,H,B,A,A,A,A,A
A,A,A,A,A,A,A,A,A,A,B,H,B,E,E,E,E,E,E,E,D,E,E,E,E,E,E,E,E,E,E,B,H,H,B,A,A,A,A,A
A,A,A,A,A,A,A,A,A,A,A,B,E,E,B,B,B,E,E,D,D,D,E,E,E,B,B,B,E,E,E,E,E,H,B,A,A,A,A,A
A,A,A,A,A,A,A,A,A,A,A,B,E,E,E,E,E,E,D,D,D,D,D,E,E,E,E,E,E,E,E,E,E,E,B,A,A,A,A,A
A,A,A,A,A,A,A,A,A,A,A,B,E,E,B,B,E,D,D,D,D,D,D,D,E,B,B,B,E,E,E,E,E,E,B,A,A,A,A,A
A,A,A,A,A,A,A,A,A,A,A,B,E,B,B,B,B,D,D,D,D,D,D,D,B,B,B,B,B,B,E,E,E,E,B,A,A,A,A,A
A,A,A,A,A,A,A,A,A,A,B,E,B,C,B,D,D,B,D,D,D,D,D,D,B,D,D,B,C,B,E,E,E,E,B,A,A,A,A,A
A,A,A,A,A,A,A,A,A,B,E,E,B,C,B,D,D,B,D,D,D,D,D,B,B,D,D,B,C,C,B,E,E,E,E,B,A,A,A,A
A,A,A,A,A,A,A,A,A,B,E,E,B,C,B,B,B,B,D,D,D,D,D,B,B,B,B,B,B,C,B,E,E,E,E,B,A,A,A,A
A,A,A,A,A,A,A,A,A,B,G,E,B,B,B,B,B,B,D,D,D,D,D,B,B,B,B,B,B,C,B,E,E,E,G,B,A,A,A,A
A,A,A,A,A,A,A,A,A,B,G,E,B,B,F,B,F,B,D,D,D,D,D,B,B,F,B,F,B,C,B,E,E,G,G,B,A,A,A,A
A,A,A,A,A,A,A,A,A,B,G,G,E,E,F,F,F,B,D,H,H,D,D,D,B,F,F,F,D,E,E,E,G,G,G,B,A,A,A,A
A,A,A,A,A,A,A,A,A,A,B,G,G,E,B,B,B,D,D,D,D,D,D,D,D,B,B,B,H,H,E,E,G,G,B,A,A,A,A,A
A,A,A,A,A,A,A,A,A,A,A,B,G,H,H,H,D,D,D,B,B,D,D,D,D,D,D,H,H,H,H,G,G,B,A,A,A,A,A,A
A,A,A,A,A,A,A,A,A,A,A,A,B,C,H,H,D,D,B,D,D,B,B,D,D,D,D,D,H,H,C,G,B,A,A,A,A,A,A,A
A,A,A,A,B,B,B,B,B,A,A,A,A,B,B,C,C,D,D,D,D,D,D,D,D,D,D,C,C,C,B,B,A,A,A,B,B,B,A,A
A,A,A,B,D,D,D,F,F,B,A,A,A,A,A,B,C,C,C,C,C,C,C,C,C,C,C,C,C,B,A,A,A,A,B,D,D,E,B,A
A,A,B,D,D,D,D,D,F,F,B,A,A,A,A,A,B,B,B,B,B,B,B,B,B,B,B,B,B,A,A,A,A,B,D,E,E,E,E,B
A,B,E,E,E,E,D,D,E,E,E,B,A,A,A,A,A,B,C,C,C,C,C,C,G,G,G,B,A,A,A,A,B,E,E,G,E,E,E,B
B,E,E,E,E,E,E,E,E,D,E,F,B,A,A,B,B,C,D,D,D,D,C,C,C,G,G,G,B,A,A,A,B,E,G,G,G,G,G,B
B,E,E,E,E,E,D,D,E,E,E,D,B,A,B,D,D,D,D,D,D,D,D,C,E,E,E,G,G,B,A,B,G,G,G,B,B,G,B,A
B,E,E,E,E,D,D,D,D,F,F,D,B,A,B,D,D,D,D,C,C,C,D,D,E,E,E,E,E,G,B,B,G,G,G,B,A,B,A,A
B,E,E,D,D,D,D,D,F,F,F,D,B,A,B,C,C,C,B,B,C,C,C,D,E,E,E,E,E,E,G,B,G,G,G,B,A,A,A,A
B,E,C,C,D,D,D,D,F,F,F,D,B,A,A,B,B,B,A,B,C,C,C,C,B,B,E,E,E,E,G,B,G,G,B,A,A,A,A,A
A,B,C,C,C,D,D,F,F,F,F,D,B,A,A,A,A,B,B,C,C,C,B,B,B,D,E,E,E,G,G,B,G,B,A,A,A,A,A,A
A,B,C,C,C,C,C,F,F,F,F,B,A,A,A,B,B,C,C,C,C,B,D,D,D,D,D,E,E,G,G,B,B,A,A,A,A,A,A,A
A,A,B,C,C,C,C,F,F,F,B,A,A,A,A,B,C,C,C,C,B,B,D,D,D,C,D,E,G,G,B,A,A,A,A,A,A,A,A,A
A,A,A,B,C,F,F,F,B,B,I,I,A,A,I,B,B,B,B,B,B,B,C,C,B,B,B,B,B,B,B,I,I,I,I,A,A,A,A,A
A,I,I,I,B,B,B,B,I,I,I,I,I,I,I,I,I,I,I,I,I,I,B,B,B,I,I,I,I,I,I,I,I,A,A,A,A,A,A,A
